{
  "articles": [
    {
      "title": "Brookfield’s Flagship Real Estate Fund Reaches $16B Amid Investor Demand",
      "url": "https://www.globest.com/2025/05/06/brookfield-eyes-distressed-assets-at-up-to-40-discount-after-raising-59b/",
      "source": "GlobeSt",
      "publishedDate": "Unknown",
      "region": "National"
    },
    {
      "title": "Hotel Survey Tracks $2.8B in Deals",
      "url": "https://www.globest.com/2025/05/06/hotel-survey-tracks-28b-in-deals/",
      "source": "GlobeSt",
      "publishedDate": "Unknown",
      "region": "National"
    },
    {
      "title": "Retail Realities and Rising Resilience",
      "url": "https://www.globest.com/2025/05/06/retail-realities-and-rising-resilience/",
      "source": "GlobeSt",
      "publishedDate": "Unknown",
      "region": "National"
    },
    {
      "title": "CMBS Delinquency Rate Surpasses 7% for the First Time Since 2021",
      "url": "https://www.globest.com/2025/05/05/cmbs-delinquency-rate-surpasses-7-for-the-first-time-since-2021/",
      "source": "GlobeSt",
      "publishedDate": "Unknown",
      "region": "National"
    },
    {
      "title": "Bill Ackman to Transform Developer Into Holdings Company After $900M Stake",
      "url": "https://www.globest.com/2025/05/05/bill-ackman-to-transform-developer-into-hodings-company-after-900m-stake/",
      "source": "GlobeSt",
      "publishedDate": "Unknown",
      "region": "National"
    },
    {
      "title": "Fed Warns CRE Could See Further Price Drops",
      "url": "https://www.globest.com/2025/05/02/fed-warns-cre-could-see-further-price-drops/",
      "source": "GlobeSt",
      "publishedDate": "Unknown",
      "region": "National"
    },
    {
      "title": "Influencers in Retail Real Estate 2025",
      "url": "https://www.globest.com/2025/05/06/influencers-in-retail-real-estate-2025/",
      "source": "GlobeSt",
      "publishedDate": "Unknown",
      "region": "National"
    },
    {
      "title": "Shoppers Prioritize Necessities, Discounted Items as Economic Pressures Loom",
      "url": "https://www.globest.com/2025/05/05/shoppers-prioritize-necessities-discounted-items-as-economic-pressures-loom/",
      "source": "GlobeSt",
      "publishedDate": "Unknown",
      "region": "National"
    },
    {
      "title": "Apartment Markets Poised to Deliver Strong Returns for Savvy Investors",
      "url": "https://www.globest.com/2025/05/06/apartment-markets-poised-to-deliver-strong-returns-for-savvy-investors/",
      "source": "GlobeSt",
      "publishedDate": "Unknown",
      "region": "National"
    },
    {
      "title": "San Francisco Industrial, Multifamily Owners Now Need to Screen Buildings for Seismic Risk",
      "url": "https://www.globest.com/2025/05/06/san-francisco-industrial-multifamily-owners-now-need-to-screen-buildings-for-seismic-risk/",
      "source": "GlobeSt",
      "publishedDate": "Unknown",
      "region": "National"
    }
  ],
  "total": 63,
  "page": 1,
  "pageSize": 10,
  "totalPages": 7
}